{
    "id": "map001",
    "nodes": [
        {
            "nodeId": "Node01",
            "x": 25.1440340077608,
            "y": -16.3047271679294
        },
        {
            "nodeId": "Node02",
            "x": 16.0717321109926,
            "y": -16.3047271679294
        },
        {
            "nodeId": "Node03",
            "x": 7.51163316559193,
            "y": -16.3047271679294
        },
        {
            "nodeId": "Node04",
            "x": -1.97891131735226,
            "y": -16.3047271679294
        },
        {
            "nodeId": "Node05",
            "x": -9.9581686603661,
            "y": -16.3047271679294
        },
        {
            "nodeId": "Node06",
            "x": -9.9581686603661,
            "y": -11.3809483660861
        },
        {
            "nodeId": "Node07",
            "x": -18.8669557294863,
            "y": -11.3809483660861
        },
        {
            "nodeId": "Node08",
            "x": -18.8669557294863,
            "y": -16.3047271679294
        }
    ]
}